IDX,X,Y,TYPE,SPEED,DirType,Direction
117930,33.7103891,54.2348228,1,60,1,71
408592,33.7176456,54.2363515,1,60,2,242
297102,33.7228346,54.2383561,1,60,1,235
117929,33.7229526,54.2383906,1,60,1,56
113437,33.9447337,54.3067249,1,60,2,64
625965,34.0593780,54.3754190,1,60,2,328
128195,34.0724015,54.3449132,1,60,2,56
764129,34.0899512,54.3519403,1,60,2,55
524368,34.2299250,54.0683196,1,60,1,50
288453,34.2790180,54.4348960,1,60,1,60
975817,34.2971921,54.0752004,1,40,1,230
1011997,34.3073148,54.0559274,1,60,1,339
546959,34.3075802,54.0555511,1,60,1,159
1011997,34.3077417,54.0552661,1,60,1,339
196277,34.3193608,54.0813659,1,40,1,82
196277,34.3207095,54.0815861,1,40,1,82
989210,34.3207848,54.0814507,1,40,1,256
435134,34.3433958,54.1250697,1,60,1,15
368656,34.3454451,53.8085154,1,90,2,5
1016363,34.3554926,53.9767110,1,60,2,11
630892,34.3591726,53.8412286,1,60,2,35
442545,34.4093023,54.4806632,1,60,2,58
967052,34.4105208,53.8475900,1,60,1,168
966301,34.4304093,53.8510264,1,60,1,48
966300,34.4672120,53.8520614,1,40,1,301
167272,34.4887123,54.3097712,1,60,2,84
284880,34.8074230,53.7574020,1,90,2,180
166420,34.8074586,53.7597486,1,90,0,0
415240,34.9041778,54.8403752,1,60,2,138
268947,35.0040079,54.4919066,1,90,2,282
1021356,35.0323650,53.9588760,1,80,1,45
214423,35.0557507,54.4797250,1,40,1,45
730848,35.0794649,53.9914526,1,90,1,33
730848,35.0802020,53.9920960,1,90,1,33
933739,35.0802146,53.9920739,1,90,1,213
962004,35.1112289,54.7074537,1,60,1,245
960872,35.1141071,53.9401614,1,40,1,226
960874,35.1144719,53.9402877,1,40,1,352
149232,35.1166929,54.7089270,1,60,1,65
915484,35.1369508,54.7145755,1,60,1,61
305198,35.1434028,54.7166518,1,60,2,60
843596,35.1472610,54.7365582,1,60,2,288
129060,35.1672900,54.7243000,1,90,2,60
305418,35.2093148,54.7377535,1,60,1,241
305197,35.2094862,54.7378055,1,60,1,54
312752,35.2231765,54.0915795,1,90,2,40
10521,35.2518335,54.7481595,1,60,2,60
1004578,35.2518846,54.1125813,1,90,1,39
956852,35.2529812,54.1133929,1,90,1,218
1004578,35.2530563,54.1133989,1,90,1,39
113451,35.2611136,54.1193312,1,90,2,39
10524,35.2832800,54.7609500,1,60,2,231
951527,35.2985734,54.7680895,1,90,1,50
993192,35.3201951,54.1716669,1,90,1,50
993192,35.3222895,54.1726780,1,90,1,50
983351,35.3223360,54.1726530,1,90,1,231
981657,35.3229750,54.1041610,1,60,1,309
522464,35.3604627,54.0963269,1,60,1,207
1031461,35.3700328,54.0974562,1,40,1,98
10536,35.4129481,54.8106466,1,60,2,59
987109,35.4429867,54.2522075,1,90,1,32
984638,35.4435924,54.2527652,2,90,1,28
987108,35.4436240,54.2527700,2,90,1,212
987109,35.4436326,54.2527967,1,90,1,32
984124,35.4576232,54.2657568,1,90,1,212
984638,35.4576400,54.2657672,2,90,1,28
987108,35.4576725,54.2657983,2,90,1,212
10541,35.4719800,54.8313400,1,60,2,59
306222,35.4795957,54.5626881,1,60,1,120
10546,35.5189200,54.8477000,1,60,2,58
10550,35.5335800,54.8528200,1,90,2,58
10553,35.5586500,54.8615500,1,60,1,59
10554,35.5676736,54.8646021,1,60,1,239
10563,35.6415500,54.8901800,1,60,1,60
1017709,35.6927347,54.5224514,1,60,2,103
180662,35.7000119,54.3911108,1,90,2,61
984123,35.7332532,54.4030868,1,90,1,232
984637,35.7332844,54.4031019,1,90,1,49
984123,35.7339376,54.4034115,1,90,1,232
177869,35.8409167,54.9621432,1,60,1,238
395741,35.8482015,54.9646263,1,60,2,240
959787,35.8630550,54.5176220,2,60,1,250
958549,35.8630979,54.5176340,1,60,1,68
959787,35.8679773,54.5187879,2,60,1,250
118448,35.8715898,54.1304545,1,60,2,49
1015398,35.8779089,55.0126655,1,60,1,15
427647,35.8873987,54.1397637,1,60,2,40
986391,35.8876502,54.1399221,1,60,1,41
986391,35.8883069,54.1404029,1,60,1,41
986392,35.8883391,54.1403997,1,60,1,218
668578,35.8945630,54.9656430,1,60,2,267
180658,35.9104311,54.4844418,1,90,2,52
945243,35.9291950,54.1785600,1,60,2,58
118447,35.9373897,54.1817109,1,60,2,55
129058,35.9527700,54.9677400,1,90,2,87
1024123,35.9593091,55.1178035,1,60,1,201
160220,35.9869278,54.7423885,1,60,2,8
938182,36.0313797,54.6573102,1,60,2,336
792004,36.0365617,54.6487539,1,60,1,177
785235,36.0365832,54.6488470,1,60,1,352
992122,36.0383694,54.6136460,1,60,1,164
683764,36.0476500,54.6049826,1,60,1,152
1015602,36.0886450,54.2006400,1,60,1,187
338617,36.1095270,54.9732410,1,60,2,86
918363,36.1170065,54.5698071,1,60,1,335
680897,36.1170441,54.5697791,1,60,1,154
918363,36.1176212,54.5691447,1,60,1,335
719177,36.1227357,54.9736728,1,60,1,267
999038,36.1374289,54.6513316,1,110,1,14
152468,36.1432404,54.2782152,1,90,1,53
995255,36.1449228,54.6680571,1,110,1,194
918361,36.1461492,54.5473493,1,90,1,142
918361,36.1474818,54.5465515,1,90,1,142
625236,36.1474982,54.5465189,1,90,1,314
1001292,36.1529601,54.6867876,1,110,1,14
999037,36.1570036,54.6958157,1,110,1,194
923404,36.1730593,54.5296833,1,60,1,314
675740,36.1730835,54.5296880,1,60,1,135
923404,36.1753906,54.5283520,1,60,1,314
152465,36.1793161,54.2970860,1,70,1,350
1012599,36.1799168,54.7333453,1,110,1,39
843597,36.1918644,54.5223671,1,60,1,296
913782,36.2016283,54.5572347,1,60,2,55
732222,36.2084001,54.5138606,2,60,1,316
917235,36.2085369,54.5139384,1,60,1,117
732222,36.2127592,54.5123658,2,60,1,316
10862,36.2254100,54.7650700,1,110,2,40
995036,36.2282646,54.4933149,1,60,1,3
946274,36.2283236,54.4932310,1,60,1,175
946273,36.2283397,54.4932085,1,60,1,258
918360,36.2285864,54.4975645,1,60,1,8
645660,36.2287788,54.4975926,1,60,1,183
645660,36.2291092,54.4997110,1,60,1,183
927593,36.2341708,54.5109893,1,60,1,47
687312,36.2361557,54.4639040,1,60,1,25
687311,36.2361933,54.4638791,1,60,1,173
687312,36.2363788,54.4624448,1,60,1,25
801121,36.2559878,54.5713931,1,60,1,166
152121,36.2563804,54.5699566,1,60,1,352
917242,36.2575521,54.5936213,1,60,1,23
821178,36.2580317,54.5942646,1,60,1,201
917242,36.2580478,54.5942802,1,60,1,23
946731,36.2594801,54.5648684,1,60,2,340
957815,36.2594855,54.5648591,1,60,2,97
953524,36.2611592,54.5137921,1,60,1,281
993085,36.2611914,54.5137601,1,60,1,194
957283,36.2612236,54.5138979,1,60,1,15
951228,36.2613255,54.5138792,1,60,1,101
625014,36.2614940,54.5990030,1,60,1,24
919293,36.2625378,54.5598980,1,60,1,340
137604,36.2625408,54.5598796,1,60,1,161
645885,36.2630453,54.6009948,1,60,1,204
918355,36.2630850,54.6010456,1,60,1,24
919293,36.2633188,54.5585884,1,60,1,340
957774,36.2636858,54.5134963,1,60,1,282
993086,36.2637985,54.5135169,1,60,1,202
957775,36.2638092,54.5135803,1,60,1,21
645885,36.2638156,54.6020389,1,60,1,204
953523,36.2639648,54.5135959,1,60,1,100
993088,36.2710780,54.5243739,1,60,1,201
951064,36.2710887,54.5243786,1,60,1,21
951229,36.2710941,54.5243785,1,60,1,109
993089,36.2711102,54.5243739,1,60,1,291
1019631,36.2714018,54.7971174,1,110,1,219
918356,36.2763351,54.5518405,1,60,1,317
955524,36.2763396,54.5518312,1,60,1,142
918356,36.2776847,54.5509009,1,60,1,317
988312,36.2837327,54.6181329,1,50,1,12
1016941,36.2840974,54.8059938,1,60,1,220
125171,36.2903309,54.7169365,1,90,2,1
167961,36.2939280,54.6757077,1,90,1,211
115749,36.2950517,54.5282048,1,60,1,193
646004,36.2950623,54.5281982,1,60,1,3
115749,36.2953392,54.5292445,1,60,1,193
1016943,36.2961245,54.8144241,1,60,1,220
658261,36.2986564,54.5633469,1,60,1,30
932398,36.2986672,54.5633413,1,60,1,210
932398,36.2994428,54.5641002,1,60,1,210
126404,36.3025242,54.4816078,1,90,2,36
749510,36.3026261,54.4498068,1,90,2,119
917240,36.3035519,54.5411962,1,60,1,162
818221,36.3043454,54.5399839,1,60,1,330
917240,36.3043481,54.5399825,1,60,1,162
161767,36.3109982,54.5018167,1,60,1,176
152362,36.3120926,54.4940786,1,90,1,174
826384,36.3120997,54.5390145,1,60,1,56
932397,36.3121051,54.5390146,1,60,1,236
932397,36.3134869,54.5395592,1,60,1,236
681230,36.3177055,54.6021425,1,90,1,330
937694,36.3177645,54.8187204,1,30,2,27
918354,36.3178772,54.6021860,1,90,1,149
446178,36.3182902,54.5025175,1,60,1,298
152271,36.3187015,54.5024266,1,60,1,99
681230,36.3193823,54.6004614,1,90,1,330
817957,36.3225093,54.5155487,1,60,1,271
917237,36.3225120,54.5155297,1,60,1,90
475309,36.3270342,54.5139727,1,60,1,144
126403,36.3288474,54.5183415,1,60,1,34
649292,36.3316770,54.5881840,1,90,2,332
10918,36.3349900,54.9942400,1,60,2,260
131487,36.3373125,54.5490314,1,60,2,58
152123,36.3560620,54.5604372,1,60,1,323
499073,36.3660175,54.5144616,1,60,2,86
962008,36.3796785,54.9989877,1,90,1,260
1016538,36.3819190,54.9099120,1,70,1,221
614176,36.4097830,55.1957200,1,30,1,71
915062,36.4393759,54.9998813,1,60,1,24
24909,36.4458017,55.0059884,1,60,2,258
151881,36.4498817,55.0463467,1,40,1,184
1032599,36.4752585,54.9681550,1,90,1,223
1026914,36.4863749,55.2058313,1,60,1,166
592379,36.4943880,55.2107731,1,50,2,60
932425,36.4955252,54.5345730,1,60,1,103
177885,36.4985007,55.0891872,1,60,2,49
24920,36.5085900,55.0240200,1,60,2,55
997734,36.5340471,55.0349582,1,60,2,49
989164,36.5576260,54.5411940,1,60,1,70
989166,36.5576988,54.5412242,1,60,1,253
986044,36.5639420,55.2222984,1,40,1,94
986044,36.5649313,55.2222587,1,40,1,94
986043,36.5649677,55.2222369,1,40,1,274
313376,36.5710402,55.0870385,1,60,2,95
101055,36.5793014,55.0316010,1,90,1,223
922364,36.5860820,55.0806151,1,60,2,345
551863,36.6016442,55.0450773,1,90,1,223
984177,36.6096157,55.1232753,1,40,1,48
984344,36.6098410,55.1232262,1,40,1,230
984344,36.6105254,55.1235606,1,40,1,230
977332,36.6169971,55.1313449,1,60,2,10
597587,36.6358605,55.0933378,1,60,1,15
932403,36.6358852,55.0933841,1,60,1,195
594980,36.6359282,55.1223428,1,60,2,105
932403,36.6366447,55.0949926,1,60,1,195
129055,36.6371800,55.0962500,1,60,1,15
594981,36.6473052,55.1181997,1,60,1,15
938966,36.6473919,55.1182118,1,60,1,195
938966,36.6482587,55.1201629,1,60,1,195
989003,36.6678572,55.0891169,1,60,1,333
1003392,36.6678786,55.0890839,1,60,1,153
989003,36.6683163,55.0886073,1,60,1,333
596923,36.6691188,55.1652484,1,60,1,195
943816,36.6691768,55.1652557,1,60,1,14
596923,36.6695565,55.1661002,1,60,1,195
984101,36.6786084,55.2029726,1,90,1,360
984101,36.6786321,55.2013668,1,90,1,360
982995,36.6786878,55.2029649,1,90,1,180
919296,36.6787094,55.1875850,1,60,1,182
919241,36.6787112,55.1875850,1,60,1,0
919296,36.6787770,55.1889955,1,60,1,182
1024578,36.6825771,55.2293412,1,90,2,7
983431,36.6873728,55.2482391,1,90,1,9
984102,36.6874265,55.2482525,1,90,1,188
984102,36.6876229,55.2490047,1,90,1,188
102405,36.6914177,55.0702347,1,60,2,130
356685,36.6936596,55.2725942,1,90,1,188
356686,36.6940248,55.2743871,1,90,1,9
1010276,36.7617559,54.5233481,1,60,1,330
196424,36.7652619,54.3593792,1,70,2,102
998261,36.8163228,55.1513387,1,60,1,56
989163,36.8562780,54.5744770,1,60,1,60
989165,36.8563092,54.5744809,1,60,1,237
600434,36.8857840,54.3392780,1,90,2,117
119395,36.9442267,55.2082235,1,60,1,90
295684,36.9455677,55.2081959,1,60,2,87
319015,37.1570465,54.7421185,1,90,2,6
