IDX,X,Y,TYPE,SPEED,DirType,Direction
966182,30.9412000,54.9924000,1,50,1,300
960283,30.9886551,54.6907834,1,90,1,269
960284,31.0014412,54.6909543,1,90,1,269
960285,31.0057729,54.6911138,1,70,1,89
10059,31.0089900,54.9709400,1,60,2,119
955516,31.0142062,54.6912069,1,60,1,90
960282,31.0357674,54.6905140,1,90,1,94
941569,31.0430128,54.9603023,1,90,1,298
471268,31.0444270,54.6900330,1,60,1,274
469743,31.0471185,54.6899904,1,60,1,94
522593,31.0670131,54.9527553,1,60,1,119
586362,31.0735110,54.9506890,1,40,2,300
629324,31.1426139,54.9327639,1,60,2,117
304081,31.1429679,54.6978707,1,90,1,81
652713,31.1457682,55.5929156,1,60,2,65
156436,31.1599386,55.6093107,1,60,1,278
156540,31.1741168,55.6083086,1,60,1,99
436071,31.1832133,54.7018093,1,60,1,80
976031,31.1840142,54.7018005,2,90,1,85
436073,31.1841654,54.7017442,1,60,1,260
976046,31.1842525,54.7017288,2,90,1,260
652712,31.2265134,55.5942494,1,60,2,122
1005611,31.2378109,55.5898297,1,60,1,307
896179,31.2378859,55.5898358,1,60,1,138
1005611,31.2392142,55.5891021,1,60,1,307
1001245,31.3307119,54.7296713,1,60,1,74
10111,31.3566200,54.7352700,1,90,2,248
587272,31.3747151,54.8607100,1,60,2,118
629314,31.3794851,54.8592020,1,60,2,118
793933,31.4025843,54.7418408,1,60,2,80
1026211,31.4216977,54.5657206,1,60,2,273
978967,31.4397290,54.7453830,1,90,2,260
998940,31.4551234,55.2796433,1,90,1,1
1012540,31.4551610,55.2796500,1,90,1,181
1012540,31.4552553,55.2808721,1,90,1,181
469741,31.5158660,54.7635510,1,90,1,54
10139,31.5693900,54.7997100,1,60,2,299
1003787,31.5886223,54.7964102,1,90,1,47
586323,31.6140371,54.7861749,1,60,2,118
959151,31.6283619,55.0059638,1,50,1,122
854642,31.6283941,55.0059670,1,50,1,312
805259,31.6321498,54.8124301,1,90,1,61
1005770,31.6475097,54.9995900,1,50,1,306
947523,31.6498151,54.8249844,1,90,1,30
1010881,31.6736698,54.8440293,1,60,2,71
854658,31.6762421,54.9712187,1,60,1,327
959150,31.6763198,54.9712096,1,60,1,144
173711,31.6779257,54.9698262,1,60,2,323
967238,31.6792998,54.8444741,1,60,2,265
175524,31.7335397,54.7659389,1,60,2,90
173714,31.7652209,54.9140532,1,60,2,144
998848,31.7778576,54.8481876,1,90,2,266
10163,31.8072000,54.8494000,1,90,2,267
377041,31.8396280,54.8506760,1,90,2,85
681298,31.8431425,54.7637729,1,90,2,134
926604,31.8494435,54.8256337,1,60,1,15
926602,31.8496109,54.8259923,1,60,1,193
926604,31.8496227,54.8260138,1,60,1,15
945539,31.8502000,54.8510000,1,60,1,267
954501,31.8543166,54.8512890,1,60,1,84
681299,31.8656000,54.7534000,1,90,2,125
967240,31.8705492,54.8540795,1,90,2,250
1009278,31.8846685,54.7143100,1,60,1,237
991547,31.8846900,54.7143100,1,60,1,53
1009278,31.8859377,54.7148523,1,60,1,237
681297,31.9303948,54.7888536,1,60,2,85
937223,31.9318000,54.8618081,1,90,1,266
166119,31.9323344,54.7338824,1,90,2,110
177841,31.9480169,54.7584283,1,60,1,182
147766,31.9480390,54.7584439,1,60,1,42
982526,31.9612970,54.7903743,1,60,1,85
451325,31.9625652,54.7904207,1,60,1,265
982526,31.9626027,54.7904268,1,60,1,85
976031,31.9710678,54.8636243,2,90,1,85
963255,31.9710817,54.8636048,2,90,1,53
976046,31.9710870,54.8635261,2,90,1,260
177612,31.9711000,54.8635200,1,60,1,266
377038,31.9711000,54.8636158,1,60,1,84
963250,31.9711268,54.8635275,2,90,1,266
492273,31.9767572,54.7703238,1,60,1,71
492178,31.9782497,54.7706958,1,60,1,245
492273,31.9783580,54.7707261,1,60,1,71
1021162,31.9791790,54.7912680,1,50,1,84
389525,32.0122879,54.7680611,1,60,1,266
391718,32.0124381,54.7682722,1,60,1,358
719598,32.0128083,54.7681449,1,60,1,87
957353,32.0185000,54.7981027,1,60,1,268
203765,32.0185914,54.7981089,1,60,1,354
179360,32.0185967,54.7980966,1,60,1,90
986575,32.0225341,54.7812887,1,60,1,268
986578,32.0228505,54.7814869,1,60,1,359
986577,32.0230300,54.7810800,1,60,1,179
985027,32.0230758,54.7702801,1,60,1,241
985031,32.0230812,54.7706058,1,60,1,323
986576,32.0233441,54.7813721,1,60,1,89
985030,32.0236337,54.7703080,1,60,1,138
985028,32.0236444,54.7705561,1,60,1,61
984322,32.0254200,54.8959665,1,60,2,175
277783,32.0254796,54.8710249,1,70,2,246
611968,32.0260853,54.7271883,1,90,2,99
985024,32.0268417,54.8860538,1,90,2,354
986411,32.0274157,54.8804936,1,90,2,359
969232,32.0275690,54.8642346,1,60,1,171
969232,32.0276892,54.8633516,1,60,1,171
968928,32.0277778,54.8628191,1,60,1,356
465930,32.0285046,54.8604463,1,60,2,170
993241,32.0353805,54.7876122,1,60,1,6
972063,32.0356071,54.7875008,1,50,1,194
986177,32.0366371,54.8436087,1,60,2,330
986420,32.0387050,54.7260950,1,90,1,277
984113,32.0394749,54.7689355,1,60,1,270
984114,32.0398289,54.7687917,1,40,1,181
984110,32.0401508,54.7690283,1,60,1,91
942392,32.0449519,54.7557121,1,60,2,5
389526,32.0457352,54.7619431,1,60,1,5
957351,32.0458263,54.7615824,1,60,1,185
983802,32.0460087,54.7688191,1,60,1,273
397415,32.0461562,54.7616889,1,60,1,89
983804,32.0465183,54.7691698,1,60,1,3
983805,32.0465747,54.7686120,1,60,1,183
948586,32.0468000,54.8342581,1,60,1,146
983803,32.0471900,54.7689200,1,60,1,91
957352,32.0474142,54.8159635,1,50,1,209
179540,32.0474624,54.8160136,1,50,1,30
203764,32.0475055,54.8159725,1,60,1,120
206102,32.0490774,54.7450153,1,60,2,355
128753,32.0496565,54.7990305,1,60,1,75
982403,32.0499837,54.7902793,1,60,1,263
986709,32.0502412,54.7781474,1,60,1,281
982405,32.0502412,54.7904745,1,60,1,350
986711,32.0504612,54.7778407,1,60,1,214
982404,32.0505042,54.7901243,1,50,1,168
982402,32.0507348,54.7904002,1,60,1,83
986710,32.0510137,54.7784762,1,60,1,20
1019553,32.0516843,54.7777190,1,60,1,319
949812,32.0531165,54.8225978,1,60,1,204
465932,32.0534437,54.8260607,1,60,1,185
927818,32.0534598,54.8261563,1,60,1,340
968487,32.0538902,54.7858158,1,50,1,187
984844,32.0589200,54.7693200,1,60,1,246
946508,32.0593232,54.8004178,1,60,1,257
984847,32.0594680,54.7697853,1,60,1,334
984849,32.0598007,54.7694042,1,60,1,153
984846,32.0601700,54.7698400,1,60,1,61
513053,32.0604497,54.8005643,1,60,1,120
1033984,32.0695820,54.7172580,1,90,2,303
983986,32.0704300,54.7729700,1,60,1,241
983985,32.0710069,54.7732292,1,60,1,61
983987,32.0710230,54.7729285,1,60,1,152
950407,32.0748515,54.7526969,2,60,1,333
1015551,32.0750600,54.7525400,1,60,1,152
181187,32.0751302,54.7525284,2,60,1,153
749403,32.0775130,54.8844330,1,90,1,253
997304,32.0790900,54.7588000,1,60,1,241
1009282,32.0793500,54.7589400,1,60,1,59
732132,32.0822816,54.7867309,1,50,2,312
908401,32.0823590,54.8026980,1,60,1,45
849835,32.0831404,54.8544619,1,90,2,335
950557,32.0834017,54.8855185,1,90,1,66
907726,32.0852333,54.8041061,1,60,1,228
590799,32.0868784,54.7108214,1,90,1,303
983992,32.0885000,54.8326000,1,90,1,210
948384,32.0889509,54.8472849,1,90,2,158
927819,32.0892000,54.8335000,1,90,1,20
597704,32.0894750,54.8086189,1,60,1,23
968041,32.0897019,54.7361995,1,60,1,333
950407,32.0897426,54.7361661,2,60,1,333
181187,32.0898764,54.7362100,2,60,1,153
942749,32.0975809,54.7276129,1,60,1,332
734810,32.0990092,54.7260372,1,60,1,333
143144,32.1038532,54.7207452,1,60,2,152
950955,32.1059346,54.7184361,1,60,1,152
835932,32.1084931,54.7155899,1,60,1,333
963255,32.1121000,54.8939400,2,90,1,53
973686,32.1121712,54.8939620,2,90,1,76
973619,32.1124800,54.8939700,2,90,1,239
963250,32.1129222,54.8941118,2,90,1,266
490642,32.1183586,54.7050734,1,90,2,152
936657,32.1228111,54.9057252,1,90,2,18
948309,32.1394300,54.9206681,1,90,2,40
708941,32.1394650,54.8293490,1,60,1,225
147767,32.1396122,54.6816384,1,60,1,330
460235,32.1406534,54.6808500,1,60,1,152
455500,32.1462803,54.6742150,1,60,1,332
455500,32.1470184,54.6734333,1,60,1,332
462123,32.1599811,54.6591441,1,90,1,333
462123,32.1607084,54.6583559,1,90,1,333
462127,32.1611269,54.6584223,1,90,1,153
462127,32.1617514,54.6577334,1,90,1,153
927456,32.1653640,54.9345172,1,90,2,231
460236,32.1688731,54.6499178,1,60,1,153
460236,32.1695405,54.6491791,1,60,1,153
932575,32.1745000,54.8360000,1,70,1,80
982298,32.1757000,54.7082000,1,90,2,49
880126,32.1769381,54.6409627,1,60,1,152
982891,32.1864000,54.6305000,1,90,1,153
929147,32.1979773,54.8382942,1,60,1,80
982899,32.2055811,54.9568856,1,90,2,225
950977,32.2073007,54.6064770,1,90,1,333
1005781,32.2078210,54.6065609,1,90,1,153
938999,32.2157270,54.9632120,1,90,1,223
955793,32.2503233,54.5582028,1,90,1,332
831607,32.2905800,55.0110030,1,90,2,42
291214,32.2953013,54.5079564,1,60,1,152
619358,32.2980204,54.5045895,1,60,1,334
204728,32.3016180,55.0174455,1,60,1,63
279635,32.3017200,55.0173440,1,60,1,228
587196,32.3036582,54.4985483,1,60,1,153
950960,32.3036885,54.4981346,1,60,1,334
955753,32.3078322,55.0192692,1,60,1,63
914965,32.3124754,54.4885820,1,60,1,153
221435,32.3163477,54.4838133,1,60,1,333
638818,32.3261761,54.8593008,1,60,1,243
967678,32.3480951,54.8656420,1,60,1,63
844632,32.3489506,55.5000640,1,60,1,221
884781,32.3607036,55.0314262,1,90,1,81
220571,32.3629505,55.2490818,1,60,2,142
926428,32.3797130,54.4108263,1,60,1,154
880148,32.3852599,54.4041854,1,60,2,155
220569,32.3935921,55.2253984,1,60,2,148
936472,32.3969650,54.3901164,1,90,1,334
464752,32.3971323,54.3900781,1,90,1,152
936472,32.3976065,54.3893836,1,90,1,334
986083,32.4543510,54.3219090,1,90,1,154
948382,32.4914539,54.9010813,1,60,1,72
948381,32.4914753,54.9010996,1,60,1,252
1004879,32.5067988,55.0562850,1,60,1,87
585521,32.5089100,55.0562000,1,60,1,265
619050,32.5519482,54.2690525,1,60,2,123
1004602,32.6186121,55.0653123,1,90,1,246
1004874,32.6231986,55.0666328,1,90,1,66
936518,32.6407660,54.1939030,1,60,1,333
270721,32.6407726,54.1939310,1,60,1,153
936518,32.6416006,54.1929301,1,60,1,333
884682,32.6475156,54.1861874,1,60,2,333
298931,32.6625163,54.1692631,1,60,1,153
973619,32.7515937,55.0800781,2,90,1,239
656432,32.7516500,55.0800600,1,60,1,258
973658,32.7516925,55.0800895,2,90,1,257
973684,32.7517011,55.0801883,2,90,1,79
973686,32.7517033,55.0802008,2,90,1,76
656429,32.7517600,55.0801900,1,60,1,76
302789,32.7640624,55.0818911,1,60,2,255
1016344,32.7861482,54.0284758,1,60,2,332
127501,32.7919579,55.0858600,1,90,1,76
949204,32.8236294,53.9855627,1,60,1,333
464751,32.8236942,53.9854934,1,60,1,152
949204,32.8241583,53.9849665,1,60,1,333
552348,32.8756106,53.9663364,1,60,1,208
910863,32.8965801,53.9278320,1,90,2,164
1000007,32.8986990,55.1008063,1,60,1,76
356156,32.9140660,55.1027900,1,60,1,256
926092,32.9162031,53.9863481,1,60,1,235
884351,32.9302123,53.9920409,1,90,2,55
1008229,33.0508620,54.0410267,1,60,1,60
1000079,33.0533928,55.1181566,1,60,1,260
955794,33.0918717,54.0536192,1,60,2,63
945840,33.1593185,54.9400184,1,60,2,106
1027435,33.1962526,55.1109953,1,60,1,66
160267,33.2317865,53.7540844,1,60,2,112
211873,33.2370853,55.1398617,1,60,1,78
1022057,33.2370973,55.1396950,1,60,1,258
908407,33.2531288,55.1417750,1,60,1,80
973684,33.2531315,55.1417870,2,90,1,79
973472,33.2531320,55.1417220,2,90,1,258
973658,33.2531346,55.1416936,2,90,1,257
908406,33.2531492,55.1417048,1,60,1,258
973664,33.2531669,55.1417978,2,90,1,66
1022901,33.2570690,55.1096053,1,60,1,246
1022900,33.2571012,55.1096083,1,40,1,62
1029850,33.2618380,55.1105432,1,40,1,255
1025605,33.2619130,55.1426506,1,60,1,81
420997,33.2645416,55.1427794,1,60,1,262
765493,33.2703604,54.1575101,1,40,1,156
765719,33.2704103,54.1575340,1,60,1,329
884782,33.2729370,55.1435620,1,60,1,260
297094,33.2739186,54.1527874,1,40,1,337
886160,33.2761127,54.1278109,1,90,1,180
842306,33.2761288,54.1278926,1,40,1,6
779277,33.2770729,54.1331136,1,40,2,6
992101,33.2773550,54.1095561,1,60,1,63
930445,33.2785642,54.1436100,1,20,1,181
884256,33.2785750,54.1436649,1,20,1,354
436066,33.2786760,54.1099620,1,60,1,243
992101,33.2787305,54.1099649,1,60,1,63
949676,33.2838321,55.0343925,1,60,2,19
358504,33.2969481,54.1569969,1,20,1,116
953352,33.3068991,54.8957822,1,50,1,71
948386,33.3102035,54.9406250,1,50,1,57
710736,33.3231533,54.9466000,1,60,1,217
505016,33.3232123,54.9466401,1,60,1,30
886161,33.3787876,54.1399554,1,90,1,63
961991,33.4451616,54.1597202,1,60,2,63
1001558,33.4729385,55.1833791,1,90,2,89
463225,33.6099538,55.1809198,1,60,1,273
463226,33.6156020,55.1807883,1,60,1,95
1001244,33.8770241,55.1993254,1,90,1,88
939896,33.9915812,55.1902028,1,60,1,93
356005,33.9916300,55.1900490,1,60,1,273
684338,34.1393870,55.2028360,1,90,2,250
1001114,34.2083949,55.2187003,1,90,1,74
143683,34.2297912,55.6310625,1,90,1,336
573048,34.2561939,55.4870808,1,60,2,180
1000018,34.2565000,55.7429000,1,60,2,27
573045,34.2835119,55.7875970,1,60,2,15
1001163,34.2875791,55.2362175,1,90,1,245
1001721,34.3037045,55.2405793,1,60,1,63
577904,34.3108002,55.3014553,1,60,2,335
988643,34.3111655,55.2425484,1,60,1,245
974929,34.3111870,55.2425270,2,90,1,244
973664,34.3112040,55.2426513,2,90,1,66
974949,34.3112071,55.2426568,2,90,1,99
973472,34.3112714,55.2425501,2,90,1,258
412035,34.3113000,55.2426520,1,60,1,65
988028,34.3162926,55.1460844,1,90,1,15
988028,34.3165845,55.1467343,1,90,1,15
480156,34.3337282,55.2486665,1,90,1,64
170597,34.3456935,55.2187847,1,60,1,232
1001555,34.3597358,55.2563945,1,90,2,61
927726,34.3890095,55.2654245,1,90,2,60
1001720,34.4724369,55.2940880,1,90,2,240
1002872,34.5830619,55.3327294,1,90,1,234
1001557,34.6293354,55.3522617,1,90,1,234
1002623,34.6505785,55.3603208,1,90,1,240
1000447,34.6700782,55.3671988,1,90,1,54
968110,34.8202187,55.4332947,1,90,2,234
1002871,34.8990852,55.4658474,1,90,1,54
1002018,34.9594188,55.4896761,1,90,1,71
1021486,34.9831160,55.5795830,1,60,1,160
277785,35.0045000,55.4962000,1,90,1,80
113374,35.0117970,55.5325228,1,60,1,345
10505,35.0368314,55.4995300,1,50,2,80
1000078,35.1535624,55.5027373,1,60,1,99
974929,35.1624816,55.5018437,2,90,1,244
435273,35.1625371,55.5018400,1,60,1,280
974949,35.1632358,55.5018511,2,90,1,99
902432,35.1632573,55.5018759,1,60,1,99
