IDX,X,Y,TYPE,SPEED,DirType,Direction
0,29.5285240,55.0641526,5,70,2,42
0,29.7147820,55.1042833,5,60,2,75
0,27.0363665,55.6340314,1,60,1,310
0,29.9503613,54.9785650,1,60,1,260
0,29.9925382,55.6424841,1,60,2,185
0,28.7166095,55.4649396,1,60,1,64
0,28.4705548,55.4091536,1,60,1,69
0,28.4700713,55.4090562,1,60,1,283
0,29.9504950,54.9785865,1,60,1,86
0,27.9296540,54.8207048,1,60,1,140
0,27.7365196,55.1497630,1,60,1,74
0,28.0768919,55.7137494,1,60,2,129
0,29.9826443,55.8328067,1,60,2,156
0,28.7161053,55.4647815,1,60,1,233
0,30.4387570,54.4688350,5,60,2,357
0,28.7212791,55.5324364,1,60,2,332
0,28.1575406,55.6859197,1,60,2,145
0,30.5948800,55.0944801,1,60,2,116
0,30.7123285,55.0615721,1,60,2,298
0,30.4391348,54.6408137,1,60,1,354
0,27.0365167,55.6339859,1,60,1,108
0,29.2796427,55.0303711,1,60,1,259
0,29.2797392,55.0303681,1,60,1,85
0,29.8564679,55.1431994,1,60,2,78
0,29.8080325,55.1333812,1,60,2,51
0,27.9296225,54.8207512,1,60,1,312
0,27.7363962,55.1497569,1,60,1,248
0,27.6951224,55.1266493,1,60,2,238
0,27.6578504,54.9605822,1,60,2,140
0,30.3164721,55.3023392,1,60,1,331
0,30.3165525,55.3022536,1,60,1,153
0,28.6676538,55.5338525,5,40,1,115
0,28.6719453,55.5323740,5,40,1,315
0,27.6862940,55.6162190,1,70,2,280
0,28.0582541,54.7251346,1,60,2,221
0,29.4410068,55.3163268,1,60,2,73
0,29.7609820,55.2627180,1,60,2,108
0,27.9670363,54.6562035,1,60,2,36
0,30.4512584,54.5690172,1,60,1,350
0,30.4514140,54.5690297,1,60,1,170
0,28.7944460,54.9596710,1,60,2,55
0,28.7600280,54.9333423,1,60,2,34
0,28.7129617,54.8718781,1,60,2,44
0,29.1434240,54.7797021,5,50,2,145
0,29.1134423,54.6468296,5,60,2,47
0,29.1480964,54.6536017,5,40,1,217
0,30.0115693,55.7518494,5,60,2,5
0,27.3913520,55.6230890,5,40,2,345
0,30.4371768,54.4968293,5,50,1,178
0,28.6466164,56.0109820,5,40,2,202
0,28.7565583,55.2025849,5,60,2,182
0,30.4244846,54.4870832,5,50,1,307
0,30.4554802,54.5548555,5,60,2,165
0,29.1429359,54.6772460,5,60,2,157
0,29.1423330,54.6592750,5,40,2,72
0,29.1426516,54.6552155,5,40,2,67
0,28.7476695,55.4828905,5,60,2,4
0,30.5510500,54.5207748,5,40,1,257
0,28.6757702,55.5121737,5,40,1,316
0,30.4479590,54.6247060,5,100,1,257
0,30.6756788,54.5703498,5,40,2,49
0,27.6278579,55.6135774,5,30,1,151
0,27.8217763,55.6491750,5,40,2,66
0,27.6657629,55.6325446,5,40,2,57
0,30.5515040,54.5208270,5,60,1,76
0,28.6094874,55.8907940,5,40,2,39
0,28.6517054,56.0147988,5,40,1,65
0,28.6988640,55.5091513,5,40,2,140
0,29.7051591,54.4593154,5,120,1,258
0,29.7051080,54.4594740,5,120,1,80
0,30.6632817,54.6592682,1,60,1,248
0,30.6631798,54.6593737,1,60,1,68
0,28.7642670,55.4568920,5,60,2,155
0,30.4317159,54.6226023,1,70,1,257
0,29.8212236,54.4788777,1,120,1,82
0,30.0217831,54.4919223,1,120,1,256
0,29.6095161,54.4362557,1,120,1,257
0,29.6094035,54.4364054,1,120,1,75
0,30.4318783,54.6227241,1,90,1,77
0,30.0217747,54.4920775,1,120,1,69
0,29.8213213,54.4787376,1,120,1,260
0,28.2097143,55.5446687,5,40,2,23
0,30.4045117,54.5125742,5,50,2,3
0,28.6124813,55.5292013,5,60,2,83
0,28.5921930,55.5026895,5,40,2,143
0,29.4078660,54.3433024,5,60,2,92
0,30.4236473,54.5222569,5,40,2,89
0,28.7780240,55.4734327,5,40,2,60
0,28.6455594,55.6197486,5,40,1,338
0,30.4546965,54.5575339,5,40,2,167
0,29.6543648,54.4478447,5,120,1,244
0,28.5805386,55.4252451,5,40,2,59
0,28.6657802,55.5422412,5,60,1,285
0,30.3673926,54.6055786,1,120,1,59
0,30.4391501,54.6407069,1,60,1,178
0,29.7165522,54.4604922,5,120,1,82
0,28.6415510,55.5321250,5,40,1,121
0,28.6512445,55.5285758,5,60,1,128
0,29.6619930,54.4503710,5,120,1,67
0,28.6717956,55.5169696,5,60,1,96
0,30.4377155,54.4902110,5,50,2,178
0,28.7799552,55.4356523,5,70,2,158
0,28.6584758,55.5318700,5,60,2,31
0,30.3674487,54.6054644,1,120,1,240
0,30.5073219,54.6322326,5,100,2,78
0,30.4266143,54.5091476,5,40,2,37
0,27.1169498,55.5827391,5,40,2,10
0,28.6284781,55.5332838,5,60,1,61
0,28.6615417,55.5315396,5,40,2,130
0,28.6737913,55.5254171,5,40,1,318
0,28.6218530,55.5297621,5,60,2,265
0,28.7516499,55.4933641,5,40,1,202
0,30.3920809,54.5144133,5,50,2,98
0,27.0059278,55.6404512,5,90,2,80
0,27.0736053,55.6278483,5,40,2,119
0,27.0947036,55.6206472,5,90,2,109
0,27.0923539,55.6381032,5,60,1,247
0,27.0927348,55.6381925,5,40,1,90
0,30.0670779,55.1872985,5,60,2,85
0,28.6068820,55.1806624,5,40,0,0
0,28.6137699,55.1794893,5,40,0,0
0,30.4296796,54.5095124,5,40,2,36
0,30.4369967,54.4991401,5,40,2,0
0,30.3580195,54.5121872,5,50,2,80
0,30.3663880,54.5125982,5,50,2,88
0,30.4534686,54.5486891,5,50,2,20
0,28.7925083,55.4833831,5,40,1,279
0,29.6316290,55.2872237,5,50,1,295
0,29.5979780,55.3043271,5,50,1,136
0,26.8753803,55.1023253,5,60,0,348
0,27.2317707,55.0610928,5,60,2,93
0,26.9016686,55.0479984,5,50,2,145
0,26.8724298,55.1216802,5,60,2,0
0,27.5160313,55.0949220,5,60,2,75
0,27.5590754,55.1015887,5,60,2,76
0,27.7544528,55.1528651,5,60,1,248
0,27.7547586,55.1529816,5,60,1,51
0,27.6718140,55.1185511,5,40,1,60
0,28.6934674,55.5609895,5,60,2,151
0,28.7680757,55.5325349,5,0,2,100
0,28.7114382,55.5395716,5,90,1,269
0,28.7164915,55.5396687,5,90,1,97
0,28.7135518,55.5403850,5,90,1,330
0,28.7148607,55.5390191,5,60,1,150
0,28.6697727,55.5409389,5,60,1,121
0,28.6484707,55.5293213,5,40,1,304
0,30.4320028,54.5054595,5,50,2,131
0,28.7483561,55.4867629,5,60,2,9
0,28.7810522,55.5255213,5,40,2,15
0,28.8445315,55.5238983,1,60,2,109
0,28.7325350,55.5375870,5,90,2,107
0,28.6051940,55.5633160,5,90,2,131
